{"hash":"28e3ef7605772f0f3b809c72e6cdc9a35d8610d5","data":{"posts":{"pageInfo":{"totalPages":11,"currentPage":4,"perPage":10,"totalItems":103,"hasPreviousPage":true,"hasNextPage":true,"isFirst":false,"isLast":false},"edges":[{"node":{"id":"5432ab78ffdcb662568927aea035d6d7","title":"Optimally Configuring ASP.NET Core HttpClientFactory","date":"2018-08-20T00:00:00+00:00","dateModified":"2021-04-04T00:00:00+00:00","timeToRead":9,"description":"How to optimally configure a HttpClient using the new HttpClientFactory API in ASP.NET Core 2.1 for best performance, usability, resiliency and easy of use.","heroImage":"/images/hero/Microsoft-.NET-1366x768.png","path":"/optimally-configuring-asp-net-core-httpclientfactory/","tags":[{"id":"ASP.NET Core","title":"ASP.NET Core","path":"/tag/asp-net-core/"},{"id":"CorrelationId","title":"CorrelationId","path":"/tag/correlation-id/"},{"id":"HttpClient","title":"HttpClient","path":"/tag/http-client/"},{"id":"HttpClientFactory","title":"HttpClientFactory","path":"/tag/http-client-factory/"},{"id":"Polly","title":"Polly","path":"/tag/polly/"}]}},{"node":{"id":"79c99d8f03d81b6620d41de2372885f3","title":"ASP.NET Core Hidden Gem - QueryHelpers","date":"2018-07-14T00:00:00+00:00","dateModified":null,"timeToRead":1,"description":"How to build a URL containing dynamic query arguments using the ASP.NET Core QueryHelpers.AddQueryString method. A hidden gem in ASP.NET Core.","heroImage":"/images/hero/Microsoft-.NET-1366x768.png","path":"/asp-net-core-hidden-gem-queryhelpers/","tags":[{"id":"ASP.NET Core","title":"ASP.NET Core","path":"/tag/asp-net-core/"},{"id":"C#","title":"C#","path":"/tag/c/"},{"id":"QueryHelpers","title":"QueryHelpers","path":"/tag/query-helpers/"},{"id":"URL","title":"URL","path":"/tag/url/"}]}},{"node":{"id":"26fd49ad9429b995df29a5b819ee5e9b","title":"Optimally Configuring Entity Framework Core","date":"2018-07-08T00:00:00+00:00","dateModified":null,"timeToRead":3,"description":"How to optimally configure your Entity Framework Core DbContext for best performance, resiliency and easy debugging for the developer.","heroImage":"/images/hero/Microsoft-.NET-1366x768.png","path":"/optimally-configuring-entity-framework-core/","tags":[{"id":"Connection Strings","title":"Connection Strings","path":"/tag/connection-strings/"},{"id":"Entity Framework Core","title":"Entity Framework Core","path":"/tag/entity-framework-core/"},{"id":"Microsoft SQL Server","title":"Microsoft SQL Server","path":"/tag/microsoft-sql-server/"}]}},{"node":{"id":"238143077e4199a71711ba3720df6943","title":"Migrating to Entity Framework Core Seed Data","date":"2018-07-01T00:00:00+00:00","dateModified":null,"timeToRead":2,"description":"How to migrate an existing database to use Entity Framework Core 2.1 Seed Data to insert static data into your tables while using migrations.","heroImage":"/images/hero/Microsoft-.NET-1366x768.png","path":"/migrating-to-entity-framework-core-seed-data/","tags":[{"id":"Entity Framework Core","title":"Entity Framework Core","path":"/tag/entity-framework-core/"},{"id":"Migrations","title":"Migrations","path":"/tag/migrations/"},{"id":"Seed Data","title":"Seed Data","path":"/tag/seed-data/"}]}},{"node":{"id":"02f5fbb47e40f1cf896c4ded00e6d31d","title":".NET Boxed","date":"2018-05-13T00:00:00+00:00","dateModified":null,"timeToRead":2,"description":".NET Boxed is a set of project templates with batteries included, providing the minimum amount of code required to get you going faster.","heroImage":"/images/hero/Dotnet-Boxed-1366x768.png","path":"/net-boxed/","tags":[{"id":".NET Boxed","title":".NET Boxed","path":"/tag/net-boxed/"},{"id":".NET Core","title":".NET Core","path":"/tag/net-core/"},{"id":"API","title":"API","path":"/tag/api/"},{"id":"ASP.NET Core","title":"ASP.NET Core","path":"/tag/asp-net-core/"},{"id":"ASP.NET Core Boilerplate","title":"ASP.NET Core Boilerplate","path":"/tag/asp-net-core-boilerplate/"},{"id":"GraphQL","title":"GraphQL","path":"/tag/graph-ql/"},{"id":"Swagger","title":"Swagger","path":"/tag/swagger/"}]}},{"node":{"id":"c17034fd1bcde3b2b4ad7776858b8cb2","title":"The Dotnet Watch Tool Revisited","date":"2018-04-30T00:00:00+00:00","dateModified":null,"timeToRead":2,"description":"The dotnet watch tool is a file watcher for dotnet that restarts the application when changes in the source code are detected. You can use dotnet watch in Visual Studio by using the launchSettings.json configuration file.","heroImage":"/images/hero/Microsoft-.NET-1366x768.png","path":"/the-dotnet-watch-tool-revisited/","tags":[{"id":".NET","title":".NET","path":"/tag/net/"},{"id":"ASP.NET Core","title":"ASP.NET Core","path":"/tag/asp-net-core/"},{"id":".NET Boxed","title":".NET Boxed","path":"/tag/net-boxed/"},{"id":"ASP.NET MVC","title":"ASP.NET MVC","path":"/tag/asp-net-mvc/"},{"id":"dotnet watch","title":"dotnet watch","path":"/tag/dotnet-watch/"},{"id":"launchSettings.json","title":"launchSettings.json","path":"/tag/launch-settings-json/"},{"id":"Visual Studio","title":"Visual Studio","path":"/tag/visual-studio/"}]}},{"node":{"id":"9df8576fd20215b29d81bd1ce3ca32d3","title":"Writing Code while Asleep","date":"2018-01-29T00:00:00+00:00","dateModified":null,"timeToRead":5,"description":"How to write code while you sleep using tools like Stack Overflow, GitHub and forums effectively.","heroImage":"/images/hero/While-Alive-Eat-Sleep-Code-Repeat-1366x768.png","path":"/writing-code-asleep/","tags":[{"id":"Curriculum Vitae","title":"Curriculum Vitae","path":"/tag/curriculum-vitae/"},{"id":"GitHub","title":"GitHub","path":"/tag/git-hub/"},{"id":"Stack Overflow","title":"Stack Overflow","path":"/tag/stack-overflow/"}]}},{"node":{"id":"7b702eb3b3fff9b88788f3fbb05006c1","title":"Writing your Webpack configuration in TypeScript","date":"2018-01-03T00:00:00+00:00","dateModified":null,"timeToRead":4,"description":"Learn how to write your Webpack configuration file using TypeScript to get intellisense and how to exclude Webpack 1 syntax from your TypeScript typings.","heroImage":"/images/hero/TypeScript-1366x768.png","path":"/writing-your-webpack-configuration-in-typescript/","tags":[{"id":"JavaScript","title":"JavaScript","path":"/tag/java-script/"},{"id":"ParcelJS","title":"ParcelJS","path":"/tag/parcel-js/"},{"id":"TypeScript","title":"TypeScript","path":"/tag/type-script/"},{"id":"Webpack","title":"Webpack","path":"/tag/webpack/"}]}},{"node":{"id":"bdc6efe93963580bbbc67befa14fc324","title":"Useful Docker Images - Part 2","date":"2017-12-11T00:00:00+00:00","dateModified":null,"timeToRead":5,"description":"How to run the ELK-B Stack, made up of ElasticSearch, Kibana, Filebeat, Metricbeat and Heartbeat using Docker and Docker Swarm.","heroImage":"/images/hero/Docker-1366x768.png","path":"/useful-docker-images-part2/","tags":[{"id":"Docker","title":"Docker","path":"/tag/docker/"},{"id":"Docker Compose","title":"Docker Compose","path":"/tag/docker-compose/"},{"id":"Docker Swarm","title":"Docker Swarm","path":"/tag/docker-swarm/"},{"id":"ElasticSearch","title":"ElasticSearch","path":"/tag/elastic-search/"},{"id":"ELK-B Stack","title":"ELK-B Stack","path":"/tag/elk-b-stack/"},{"id":"Filebeat","title":"Filebeat","path":"/tag/filebeat/"},{"id":"Heartbeat","title":"Heartbeat","path":"/tag/heartbeat/"},{"id":"Kibana","title":"Kibana","path":"/tag/kibana/"},{"id":"Metricbeat","title":"Metricbeat","path":"/tag/metricbeat/"}]}},{"node":{"id":"27f1dc0bc0937218343b243933985d35","title":"Useful Docker Images - Part 1","date":"2017-11-30T00:00:00+00:00","dateModified":null,"timeToRead":4,"description":"A guide to using the Docker Visualizer, Portainer and Sonatype Nexus Docker images to help manage a Docker Swarm.","heroImage":"/images/hero/Docker-1366x768.png","path":"/useful-docker-images-part1/","tags":[{"id":"Docker","title":"Docker","path":"/tag/docker/"},{"id":"Docker Compose","title":"Docker Compose","path":"/tag/docker-compose/"},{"id":"Docker Swarm","title":"Docker Swarm","path":"/tag/docker-swarm/"},{"id":"Docker Visualizer","title":"Docker Visualizer","path":"/tag/docker-visualizer/"},{"id":"Portainer","title":"Portainer","path":"/tag/portainer/"},{"id":"Sonatype Nexus","title":"Sonatype Nexus","path":"/tag/sonatype-nexus/"}]}}]}},"context":{}}