{"hash":"e3e0e4b2a52c9041b4c9a27b738e0af2e6ba3f6d","data":{"posts":{"pageInfo":{"totalPages":10,"currentPage":1,"perPage":10,"totalItems":92,"hasPreviousPage":false,"hasNextPage":true,"isFirst":true,"isLast":false},"edges":[{"node":{"id":"1e910a0fa5faef6ff143db904ee5a078","title":"Exporting Open Telemetry Data to Jaeger","date":"2021-02-11T00:00:00+00:00","dateModified":null,"timeToRead":3,"description":"How to optimally export Open Telemetry metrics, logs, and traces for .NET to Jaeger.","heroImage":"/images/hero/Open-Telemetry-1600x900.png","path":"/exporting-open-telemetry-data-to-jaeger/","tags":[{"id":"Open Telemetry","title":"Open Telemetry","path":"/tag/open-telemetry/"},{"id":".NET","title":".NET","path":"/tag/net/"},{"id":".NET Core","title":".NET Core","path":"/tag/net-core/"},{"id":"ASP.NET Core","title":"ASP.NET Core","path":"/tag/asp-net-core/"},{"id":"Metrics","title":"Metrics","path":"/tag/metrics/"},{"id":"Logging","title":"Logging","path":"/tag/logging/"},{"id":"Tracing","title":"Tracing","path":"/tag/tracing/"},{"id":"Distributed Tracing","title":"Distributed Tracing","path":"/tag/distributed-tracing/"},{"id":"Span","title":"Span","path":"/tag/span/"},{"id":"Activity","title":"Activity","path":"/tag/activity/"},{"id":"Jaeger","title":"Jaeger","path":"/tag/jaeger/"}]}},{"node":{"id":"9fe7156ba4a7b28523aa2b2c8bdd037c","title":"Open Telemetry for ASP.NET Core","date":"2021-02-01T00:00:00+00:00","dateModified":null,"timeToRead":3,"description":"The basics of how to configure Open Telemetry metrics, logs, and traces for ASP.NET Core and export the traces.","heroImage":"/images/hero/Open-Telemetry-1600x900.png","path":"/open-telemetry-for-asp-net-core/","tags":[{"id":"Open Telemetry","title":"Open Telemetry","path":"/tag/open-telemetry/"},{"id":".NET","title":".NET","path":"/tag/net/"},{"id":".NET Core","title":".NET Core","path":"/tag/net-core/"},{"id":"ASP.NET Core","title":"ASP.NET Core","path":"/tag/asp-net-core/"},{"id":"Metrics","title":"Metrics","path":"/tag/metrics/"},{"id":"Logging","title":"Logging","path":"/tag/logging/"},{"id":"Tracing","title":"Tracing","path":"/tag/tracing/"},{"id":"Distributed Tracing","title":"Distributed Tracing","path":"/tag/distributed-tracing/"},{"id":"Span","title":"Span","path":"/tag/span/"},{"id":"Activity","title":"Activity","path":"/tag/activity/"}]}},{"node":{"id":"9b9a9c4ceeb09ef14da9f9b62bc38cef","title":"Deep Dive into Open Telemetry for .NET","date":"2021-01-19T00:00:00+00:00","dateModified":null,"timeToRead":10,"description":"How to use the Open Telemetry specification, tools and SDK's used to instrument, generate, collect, and export telemetry data (metrics, logs, and traces) using .NET and ASP.NET.","heroImage":"/images/hero/Open-Telemetry-1600x900.png","path":"/deep-dive-into-open-telemetry-for-net/","tags":[{"id":"Open Telemetry","title":"Open Telemetry","path":"/tag/open-telemetry/"},{"id":".NET","title":".NET","path":"/tag/net/"},{"id":".NET Core","title":".NET Core","path":"/tag/net-core/"},{"id":"ASP.NET Core","title":"ASP.NET Core","path":"/tag/asp-net-core/"},{"id":"Metrics","title":"Metrics","path":"/tag/metrics/"},{"id":"Logging","title":"Logging","path":"/tag/logging/"},{"id":"Tracing","title":"Tracing","path":"/tag/tracing/"},{"id":"Distributed Tracing","title":"Distributed Tracing","path":"/tag/distributed-tracing/"},{"id":"Span","title":"Span","path":"/tag/span/"},{"id":"Activity","title":"Activity","path":"/tag/activity/"},{"id":"Cloud Native Computing Foundation (CNCF)","title":"Cloud Native Computing Foundation (CNCF)","path":"/tag/cloud-native-computing-foundation-cncf/"}]}},{"node":{"id":"63c7a0255d14016fcd4a9118adbff709","title":"Muhammad Rehan Saeed: Developer at Microsoft | Leonardo Tuna Podcast","date":"2020-11-30T10:57:00+00:00","dateModified":null,"timeToRead":1,"description":"I did a fun podcast episode with Leonardo Tuna. We talked about the difficulty of getting a job at Microsoft, some of my work there, JavaScript frontend frameworks, Vue vs React and my interesting experiences writing software for education at Bridge International Academies.","heroImage":"/images/hero/Leonardo-Podcast-1600x900.jpg","path":"/leonardo-tuna-podcast/","tags":[{"id":".NET","title":".NET","path":"/tag/net/"},{"id":"ASP.NET","title":"ASP.NET","path":"/tag/asp-net/"},{"id":"Vue","title":"Vue","path":"/tag/vue/"},{"id":"React","title":"React","path":"/tag/react/"},{"id":"Microsoft","title":"Microsoft","path":"/tag/microsoft/"},{"id":"Bridge International Academies","title":"Bridge International Academies","path":"/tag/bridge-international-academies/"}]}},{"node":{"id":"ce20713dffd770e8065bdd105be27e26","title":"Automating .NET Security Updates","date":"2020-09-23T15:35:00+00:00","dateModified":null,"timeToRead":3,"description":".NET SDK updates are released every few weeks. In this post, I talk about how you can automate them.","heroImage":"/images/hero/Microsoft-.NET-1366x768.png","path":"/automating-dotnet-security-updates/","tags":[{"id":".NET","title":".NET","path":"/tag/net/"},{"id":".NET SDK","title":".NET SDK","path":"/tag/net-sdk/"},{"id":"GitHub Actions","title":"GitHub Actions","path":"/tag/git-hub-actions/"},{"id":"Azure Pipelines","title":"Azure Pipelines","path":"/tag/azure-pipelines/"},{"id":"AppVeyor","title":"AppVeyor","path":"/tag/app-veyor/"}]}},{"node":{"id":"7a6e38e2e657e17a5ea7c4ce4cea0cdc","title":"The Fastest NuGet Package Ever Published (Probably)","date":"2020-07-08T08:34:00+00:00","dateModified":"2020-09-17T09:29:00+00:00","timeToRead":6,"description":"The fastest way to create a new NuGet package project and get it published with all the bells and whistles like continuous integration (CI) builds and drafted release notes.","heroImage":"/images/hero/NuGet-1366x768.png","path":"/the-fastest-nuget-package-ever-published-probably/","tags":[{"id":"NuGet","title":"NuGet","path":"/tag/nu-get/"},{"id":"GitHub","title":"GitHub","path":"/tag/git-hub/"},{"id":"GitHub Actions","title":"GitHub Actions","path":"/tag/git-hub-actions/"},{"id":".NET Boxed","title":".NET Boxed","path":"/tag/net-boxed/"}]}},{"node":{"id":"08caa6fc2ea98b194577094e070bdbb9","title":"The Easiest Way to Version NuGet Packages","date":"2020-07-01T16:36:29+00:00","dateModified":null,"timeToRead":5,"description":"Using MinVer is the easiest way to version your NuGet packages and DLL's using semantic versioning (SemVer).","heroImage":"/images/hero/Semantic-Versioning-1600x900.png","path":"/the-easiest-way-to-version-nuget-packages/","tags":[{"id":".NET","title":".NET","path":"/tag/net/"},{"id":"NuGet","title":"NuGet","path":"/tag/nu-get/"},{"id":"MinVer","title":"MinVer","path":"/tag/min-ver/"},{"id":"Semantic Versioning","title":"Semantic Versioning","path":"/tag/semantic-versioning/"}]}},{"node":{"id":"59b8b94ef203402bd6fd23ba79b7de80","title":"Racism in Software Development & Beyond","date":"2020-06-12T16:36:29+00:00","dateModified":null,"timeToRead":5,"description":"If you're of North African, Middle Eastern or South Asian origin, you have to send up to 90% more job applications than your white counterparts in the United Kingdom. This level of discrimination has been unchanged since the 1960's.","heroImage":"/images/hero/Black-Glowing-Fist-1600x900.png","path":"/racism-in-software-development-and-beyond/","tags":[{"id":"Racism","title":"Racism","path":"/tag/racism/"},{"id":"Black Lives Matter","title":"Black Lives Matter","path":"/tag/black-lives-matter/"},{"id":"Curriculum Vitae (CV)","title":"Curriculum Vitae (CV)","path":"/tag/curriculum-vitae-cv/"}]}},{"node":{"id":"1f16b39e9cf0c69554c70c83a62454f7","title":"Spicing up your Browser Console","date":"2020-06-10T18:00:00+00:00","dateModified":null,"timeToRead":2,"description":"Use figlet fonts, ASCII art and browser console themes to spice up your browser console.","heroImage":"/images/hero/Figlet-Fonts-1600x900.png","path":"/spicing-up-your-browser-console/","tags":[{"id":"ASCII Art","title":"ASCII Art","path":"/tag/ascii-art/"},{"id":"Figlet Font","title":"Figlet Font","path":"/tag/figlet-font/"},{"id":"Browser","title":"Browser","path":"/tag/browser/"},{"id":"Console","title":"Console","path":"/tag/console/"},{"id":"JavaScript","title":"JavaScript","path":"/tag/java-script/"}]}},{"node":{"id":"0a0df3577cbb0a9ce47d7cc39a75843d","title":"Choosing a Static Site Generator","date":"2020-06-09T19:19:49+00:00","dateModified":null,"timeToRead":7,"description":"I choose a static site generator from among a long list including Jekyll, Gatsby, Statiq, Hugo, VuePress, Next.js, Nuxt.js and Gridsome.","heroImage":"/images/hero/Static-Site-Generators-1600x900.png","path":"/choosing-a-static-site-generator/","tags":[{"id":"Static Site Generator","title":"Static Site Generator","path":"/tag/static-site-generator/"},{"id":"WordPress","title":"WordPress","path":"/tag/word-press/"},{"id":"Jekyll","title":"Jekyll","path":"/tag/jekyll/"},{"id":"Gatsby","title":"Gatsby","path":"/tag/gatsby/"},{"id":"Statiq","title":"Statiq","path":"/tag/statiq/"},{"id":"GraphQL","title":"GraphQL","path":"/tag/graph-ql/"},{"id":"Hugo","title":"Hugo","path":"/tag/hugo/"},{"id":"VuePress","title":"VuePress","path":"/tag/vue-press/"},{"id":"Next.js","title":"Next.js","path":"/tag/next-js/"},{"id":"Nuxt.js","title":"Nuxt.js","path":"/tag/nuxt-js/"},{"id":"Gridsome","title":"Gridsome","path":"/tag/gridsome/"}]}}]}},"context":{}}