{"hash":"89f6c6fb755b7285642d31d921cccd0d2e57564b","data":{"posts":{"pageInfo":{"totalPages":11,"currentPage":11,"perPage":10,"totalItems":101,"hasPreviousPage":true,"hasNextPage":false,"isFirst":false,"isLast":true},"edges":[{"node":{"id":"5203a9bdf8cfe4a161e771f32650d3e1","title":"Just Start - The First Blog Post","date":"2014-02-01T00:00:00+00:00","dateModified":null,"timeToRead":1,"description":"I thought I should begin this first blog post with a few words on what I hope to achieve.","heroImage":"/images/hero/Just-Start-1366x768.png","path":"/just-start-the-first-blog-post/","tags":[]}}]}},"context":{}}