{"hash":"bc4f171d2db32f0d55b271f35657986b75dbcbe9","data":{"posts":{"pageInfo":{"totalPages":9,"currentPage":7,"perPage":10,"totalItems":85,"hasPreviousPage":true,"hasNextPage":true,"isFirst":false,"isLast":false},"edges":[{"node":{"id":"b9bae5696b338d4897e653167ef7e140","title":"Custom Visual Studio Project Templates","date":"2014-12-10T00:00:00+00:00","dateModified":null,"timeToRead":7,"description":"A guide to creating custom Visual Studio project templates in .zip and VSIX form and submitting them to the Visual Studio Gallery, so it can be downloaded.","heroImage":"/images/hero/Visual-Studio-1366x768.png","path":"/custom-visual-studio-project-templates/","tags":[{"id":".NET","title":".NET","path":"/tag/net/"},{"id":"ASP.NET MVC","title":"ASP.NET MVC","path":"/tag/asp-net-mvc/"},{"id":"ASP.NET Core Boilerplate","title":"ASP.NET Core Boilerplate","path":"/tag/asp-net-core-boilerplate/"},{"id":"C#","title":"C#","path":"/tag/c/"},{"id":"Project Template","title":"Project Template","path":"/tag/project-template/"},{"id":"VSIX","title":"VSIX","path":"/tag/vsix/"}]}},{"node":{"id":"493ead6dcd30220ab883ceda533a9c01","title":"Internet Favicon Madness (Updated)","date":"2014-11-24T00:00:00+00:00","dateModified":null,"timeToRead":17,"description":"Add favicon's to your website to support iOS, Android, Windows 7, Windows 8, Windows Phone and more. Find out where icons are used on each platform and how.","heroImage":"/images/hero/Favicons-1366x768.png","path":"/internet-favicon-madness/","tags":[{"id":".NET","title":".NET","path":"/tag/net/"},{"id":"Android","title":"Android","path":"/tag/android/"},{"id":"ASP.NET MVC","title":"ASP.NET MVC","path":"/tag/asp-net-mvc/"},{"id":"ASP.NET Core Boilerplate","title":"ASP.NET Core Boilerplate","path":"/tag/asp-net-core-boilerplate/"},{"id":"C#","title":"C#","path":"/tag/c/"},{"id":"Favicon","title":"Favicon","path":"/tag/favicon/"},{"id":"HTML 5","title":"HTML 5","path":"/tag/html-5/"},{"id":"iOS","title":"iOS","path":"/tag/i-os/"},{"id":"Meta Tags","title":"Meta Tags","path":"/tag/meta-tags/"},{"id":"Windows 8.1","title":"Windows 8.1","path":"/tag/windows-8-1/"}]}},{"node":{"id":"eef5b6b2e546808ca04dc8e8c97aad47","title":"ASP.NET Core Boilerplate","date":"2014-11-12T00:00:00+00:00","dateModified":null,"timeToRead":7,"description":"ASP.NET Core Boilerplate is a professional ASP.NET MVC template for building secure, fast, robust and adaptable web applications or sites.","heroImage":"/images/hero/ASP.NET-Core-Boilerplate-1366x768.png","path":"/asp-net-mvc-boilerplate/","tags":[{"id":".NET","title":".NET","path":"/tag/net/"},{"id":"ASP.NET MVC","title":"ASP.NET MVC","path":"/tag/asp-net-mvc/"},{"id":"ASP.NET Core Boilerplate","title":"ASP.NET Core Boilerplate","path":"/tag/asp-net-core-boilerplate/"},{"id":"Autofac","title":"Autofac","path":"/tag/autofac/"},{"id":"Bootstrap","title":"Bootstrap","path":"/tag/bootstrap/"},{"id":"C#","title":"C#","path":"/tag/c/"},{"id":"Content Security Policy (CSP)","title":"Content Security Policy (CSP)","path":"/tag/content-security-policy-csp/"},{"id":"Elmah","title":"Elmah","path":"/tag/elmah/"},{"id":"Font Awesome","title":"Font Awesome","path":"/tag/font-awesome/"},{"id":"GitHub","title":"GitHub","path":"/tag/git-hub/"}]}},{"node":{"id":"e233b5d76bb5b15da8fba49f14d5425b","title":"Elysium Extra 1.1 Released","date":"2014-11-05T00:00:00+00:00","dateModified":null,"timeToRead":4,"description":"Elysium Extra Version 1.1 is a Windows Presentation Foundation (WPF) SDK providing Metro styles for built in WPF controls and some custom controls.","heroImage":"/images/hero/Elysium-Extra-1366x768.png","path":"/elysium-extra-1-1-released/","tags":[{"id":".NET","title":".NET","path":"/tag/net/"},{"id":"C#","title":"C#","path":"/tag/c/"},{"id":"Elysium","title":"Elysium","path":"/tag/elysium/"},{"id":"Elysium Extra","title":"Elysium Extra","path":"/tag/elysium-extra/"},{"id":"Metro","title":"Metro","path":"/tag/metro/"},{"id":"Modern","title":"Modern","path":"/tag/modern/"},{"id":"UI","title":"UI","path":"/tag/ui/"},{"id":"User Interface","title":"User Interface","path":"/tag/user-interface/"},{"id":"Windows Presentation Foundation","title":"Windows Presentation Foundation","path":"/tag/windows-presentation-foundation/"},{"id":"WPF","title":"WPF","path":"/tag/wpf/"}]}},{"node":{"id":"5ecb7f9721e0536ebf9b7f9ab20cd1ea","title":"Model-View-ViewModel (MVVM) - Part 4 - INotifyDataErrorInfo","date":"2014-09-09T00:00:00+00:00","dateModified":null,"timeToRead":12,"description":"An base class implementation for the INotifyDataErrorInfo interface. Used in the Model-View-ViewModel (MVVM) pattern. Targeted for best performance.","heroImage":"/images/hero/MVVM-1366x768.png","path":"/model-view-viewmodel-mvvm-part4-inotifydataerrorinfo/","tags":[{"id":".NET","title":".NET","path":"/tag/net/"},{"id":"Base Class Library","title":"Base Class Library","path":"/tag/base-class-library/"},{"id":"BCL","title":"BCL","path":"/tag/bcl/"},{"id":"C#","title":"C#","path":"/tag/c/"},{"id":"Elysium Extra","title":"Elysium Extra","path":"/tag/elysium-extra/"},{"id":"Events","title":"Events","path":"/tag/events/"},{"id":"Explicit Interface Implementation","title":"Explicit Interface Implementation","path":"/tag/explicit-interface-implementation/"},{"id":"INotifyDataErrorInfo","title":"INotifyDataErrorInfo","path":"/tag/i-notify-data-error-info/"},{"id":"INotifyPropertyChanged","title":"INotifyPropertyChanged","path":"/tag/i-notify-property-changed/"},{"id":"Model-View-ViewModel (MVVM)","title":"Model-View-ViewModel (MVVM)","path":"/tag/model-view-view-model-mvvm/"}]}},{"node":{"id":"c86c0a724aca113cb8d2580abb68a950","title":"Naming Conventions","date":"2014-09-04T00:00:00+00:00","dateModified":null,"timeToRead":3,"description":"Code is written to be read by humans, not machines. Naming conventions and standard code styling can boost productivity, particularly if working in teams.","heroImage":"/images/hero/Naming-Conventions-1366x768.png","path":"/naming-conventions/","tags":[{"id":"C#","title":"C#","path":"/tag/c/"},{"id":"Naming Convention","title":"Naming Convention","path":"/tag/naming-convention/"},{"id":"SQL","title":"SQL","path":"/tag/sql/"},{"id":"standards","title":"standards","path":"/tag/standards/"},{"id":"StyleCop","title":"StyleCop","path":"/tag/style-cop/"},{"id":"T-SQL","title":"T-SQL","path":"/tag/t-sql/"}]}},{"node":{"id":"f8ff146ff71eb15220b739bad542aa4e","title":"Model-View-ViewModel (MVVM) - Part 3 - INotifyPropertyChanged","date":"2014-06-18T00:00:00+00:00","dateModified":null,"timeToRead":11,"description":"An base class implementation for the INotifyPropertyChanged interface. Used in the Model-View-ViewModel (MVVM) pattern. Targeted for best performance.","heroImage":"/images/hero/MVVM-1366x768.png","path":"/model-view-viewmodel-mvvm-part3-inotifypropertychanged/","tags":[{"id":".NET","title":".NET","path":"/tag/net/"},{"id":"Base Class Library","title":"Base Class Library","path":"/tag/base-class-library/"},{"id":"BCL","title":"BCL","path":"/tag/bcl/"},{"id":"C#","title":"C#","path":"/tag/c/"},{"id":"Design Patterns","title":"Design Patterns","path":"/tag/design-patterns/"},{"id":"Events","title":"Events","path":"/tag/events/"},{"id":"Explicit Interface Implementation","title":"Explicit Interface Implementation","path":"/tag/explicit-interface-implementation/"},{"id":"INotifyPropertyChanged","title":"INotifyPropertyChanged","path":"/tag/i-notify-property-changed/"},{"id":"INotifyPropertyChanging","title":"INotifyPropertyChanging","path":"/tag/i-notify-property-changing/"},{"id":"Model-View-ViewModel (MVVM)","title":"Model-View-ViewModel (MVVM)","path":"/tag/model-view-view-model-mvvm/"}]}},{"node":{"id":"a047cd754925f6400567f7fcac367f92","title":"Model-View-ViewModel (MVVM) - Part 2 - IDisposable","date":"2014-06-13T00:00:00+00:00","dateModified":null,"timeToRead":4,"description":"Implementing IDisposable correctly is ridiculously hard. A Disposable base class can make it easier. Using IDisposable in Model-View-ViewModel (MVVM) really helps.","heroImage":"/images/hero/MVVM-1366x768.png","path":"/model-view-viewmodel-mvvm-part2-idisposable/","tags":[{"id":".NET","title":".NET","path":"/tag/net/"},{"id":"Base Class Library","title":"Base Class Library","path":"/tag/base-class-library/"},{"id":"BCL","title":"BCL","path":"/tag/bcl/"},{"id":"C#","title":"C#","path":"/tag/c/"},{"id":"Design Patterns","title":"Design Patterns","path":"/tag/design-patterns/"},{"id":"IDisposable","title":"IDisposable","path":"/tag/i-disposable/"},{"id":"Model-View-ViewModel (MVVM)","title":"Model-View-ViewModel (MVVM)","path":"/tag/model-view-view-model-mvvm/"},{"id":"MVVM","title":"MVVM","path":"/tag/mvvm/"},{"id":"Reactive Extensions","title":"Reactive Extensions","path":"/tag/reactive-extensions/"},{"id":"Rx","title":"Rx","path":"/tag/rx/"}]}},{"node":{"id":"923ea36ee920ecd8656874b41daedc5d","title":"Model-View-ViewModel (MVVM) - Part 1 - Overview","date":"2014-05-14T00:00:00+00:00","dateModified":null,"timeToRead":5,"description":"What really goes into using Model-View-ViewModel (MVVM) in .NET. Base classes for INotifyPropertyChanged, INotifyDataErrorInfo, IDisposable and a lot more.","heroImage":"/images/hero/MVVM-1366x768.png","path":"/model-view-viewmodel-mvvm-part1-overview/","tags":[{"id":".NET","title":".NET","path":"/tag/net/"},{"id":"Base Class Library","title":"Base Class Library","path":"/tag/base-class-library/"},{"id":"BCL","title":"BCL","path":"/tag/bcl/"},{"id":"C#","title":"C#","path":"/tag/c/"},{"id":"Design Patterns","title":"Design Patterns","path":"/tag/design-patterns/"},{"id":"IEditableObject","title":"IEditableObject","path":"/tag/i-editable-object/"},{"id":"INotifyDataErrorInfo","title":"INotifyDataErrorInfo","path":"/tag/i-notify-data-error-info/"},{"id":"INotifyPropertyChanged","title":"INotifyPropertyChanged","path":"/tag/i-notify-property-changed/"},{"id":"Model-View-ViewModel (MVVM)","title":"Model-View-ViewModel (MVVM)","path":"/tag/model-view-view-model-mvvm/"},{"id":"MVVM","title":"MVVM","path":"/tag/mvvm/"}]}},{"node":{"id":"db71ae6bc4507652232efbeefe7473cc","title":"Portable Class Library (PCL) version of NotificationsExtensions NuGet package","date":"2014-05-06T00:00:00+00:00","dateModified":null,"timeToRead":1,"description":"NotificationsExtensions.Portable is a Portable Class Library (PCL) used to Create Windows 8.1 or Windows Phone 8.1 Tile, Toast and Badge Notification XML.","heroImage":"/images/hero/NuGet-1366x768.png","path":"/portable-class-library-version-of-notificationsextensions-nuget-package/","tags":[{"id":".NET","title":".NET","path":"/tag/net/"},{"id":"C#","title":"C#","path":"/tag/c/"},{"id":"NotificationsExtensions","title":"NotificationsExtensions","path":"/tag/notifications-extensions/"},{"id":"NuGet","title":"NuGet","path":"/tag/nu-get/"},{"id":"Portable Class Library (PCL)","title":"Portable Class Library (PCL)","path":"/tag/portable-class-library-pcl/"},{"id":"Windows 8.1","title":"Windows 8.1","path":"/tag/windows-8-1/"},{"id":"Windows Phone","title":"Windows Phone","path":"/tag/windows-phone/"},{"id":"Windows Store","title":"Windows Store","path":"/tag/windows-store/"},{"id":"WinRT","title":"WinRT","path":"/tag/win-rt/"}]}}]}},"context":{}}