{"hash":"9cbfd18725ddb5d6ddd1290e937d447192bb3013","data":{"posts":{"pageInfo":{"totalPages":10,"currentPage":3,"perPage":10,"totalItems":97,"hasPreviousPage":true,"hasNextPage":true,"isFirst":false,"isLast":false},"edges":[{"node":{"id":"2a3a8101c39d7217c9cbcf6d74d10778","title":"Securing ASP.NET Core in Docker","date":"2019-03-25T00:00:00+00:00","dateModified":null,"timeToRead":1,"description":"How to secure your ASP.NET Core Docker image by setting the file system to be read-only. First in a series of blog posts covering Docker image security.","heroImage":"/images/hero/Docker-1366x768.png","path":"/securing-asp-net-core-in-docker/","tags":[{"id":"ASP.NET Core","title":"ASP.NET Core","path":"/tag/asp-net-core/"},{"id":"Docker","title":"Docker","path":"/tag/docker/"},{"id":"Docker Swarm","title":"Docker Swarm","path":"/tag/docker-swarm/"},{"id":"Kubernetes","title":"Kubernetes","path":"/tag/kubernetes/"}]}},{"node":{"id":"fc82a936e55a2806bb91d40337e89496","title":"A Simple and Fast Object Mapper","date":"2019-03-05T00:00:00+00:00","dateModified":null,"timeToRead":9,"description":".NET Boxed mapper is an object to object mapper that is simpler and faster than Automapper and makes zero allocations of memory, thus making the garbage collector do less work.","heroImage":"/images/hero/Dotnet-Boxed-1366x768.png","path":"/a-simple-and-fast-object-mapper/","tags":[{"id":".NET Boxed","title":".NET Boxed","path":"/tag/net-boxed/"},{"id":".NET Core","title":".NET Core","path":"/tag/net-core/"},{"id":"Automapper","title":"Automapper","path":"/tag/automapper/"},{"id":"Benchmarks","title":"Benchmarks","path":"/tag/benchmarks/"},{"id":"Entity Framework Core","title":"Entity Framework Core","path":"/tag/entity-framework-core/"}]}},{"node":{"id":"e6079721e579f266ce17866745b585ab","title":"Is ASP.NET Core now a Mature Platform?","date":"2018-12-18T00:00:00+00:00","dateModified":"2019-01-12T00:00:00+00:00","timeToRead":9,"description":"ASP.NET Core a large developer base, a large number of GitHub projects, Stack Overflow questions, bloggers and companies who use it. It's a mature platform.","heroImage":"/images/hero/Rocket-1366x768.jpg","path":"/is-asp-net-core-now-a-mature-platform/","tags":[{"id":".NET Core","title":".NET Core","path":"/tag/net-core/"},{"id":"ASP.NET Core","title":"ASP.NET Core","path":"/tag/asp-net-core/"},{"id":"HTTP/2","title":"HTTP/2","path":"/tag/http-2/"},{"id":"HTTP/3","title":"HTTP/3","path":"/tag/http-3/"},{"id":"Lets Encrypt","title":"Lets Encrypt","path":"/tag/lets-encrypt/"}]}},{"node":{"id":"c1a3fe135fe7c2da81df72976cc85e28","title":"PluralSight vs LinkedIn Learning vs FrontendMasters vs Egghead.io vs YouTube","date":"2018-11-12T00:00:00+00:00","dateModified":null,"timeToRead":7,"description":"A comparison between PluralSight, LinkedIn Learning, Frontend Masters, Egghead.io, YouTube and other resources for software developers.","heroImage":"/images/hero/Online-Learning-1366x768.png","path":"/pluralsight-vs-linkedin-learning-vs-frontendmasters-vs-egghead-io-vs-youtube/","tags":[{"id":"Channel9","title":"Channel9","path":"/tag/channel9/"},{"id":"Egghead.io","title":"Egghead.io","path":"/tag/egghead-io/"},{"id":"Frontend Masters","title":"Frontend Masters","path":"/tag/frontend-masters/"},{"id":"Learning","title":"Learning","path":"/tag/learning/"},{"id":"LinkedIn Learning","title":"LinkedIn Learning","path":"/tag/linked-in-learning/"},{"id":"Lynda.com","title":"Lynda.com","path":"/tag/lynda-com/"},{"id":"PluralSight","title":"PluralSight","path":"/tag/plural-sight/"},{"id":"YouTube","title":"YouTube","path":"/tag/you-tube/"}]}},{"node":{"id":"5432ab78ffdcb662568927aea035d6d7","title":"Optimally Configuring ASP.NET Core HttpClientFactory","date":"2018-08-20T00:00:00+00:00","dateModified":"2021-04-04T00:00:00+00:00","timeToRead":9,"description":"How to optimally configure a HttpClient using the new HttpClientFactory API in ASP.NET Core 2.1 for best performance, usability, resiliency and easy of use.","heroImage":"/images/hero/Microsoft-.NET-1366x768.png","path":"/optimally-configuring-asp-net-core-httpclientfactory/","tags":[{"id":"ASP.NET Core","title":"ASP.NET Core","path":"/tag/asp-net-core/"},{"id":"CorrelationId","title":"CorrelationId","path":"/tag/correlation-id/"},{"id":"HttpClient","title":"HttpClient","path":"/tag/http-client/"},{"id":"HttpClientFactory","title":"HttpClientFactory","path":"/tag/http-client-factory/"},{"id":"Polly","title":"Polly","path":"/tag/polly/"}]}},{"node":{"id":"79c99d8f03d81b6620d41de2372885f3","title":"ASP.NET Core Hidden Gem - QueryHelpers","date":"2018-07-14T00:00:00+00:00","dateModified":null,"timeToRead":1,"description":"How to build a URL containing dynamic query arguments using the ASP.NET Core QueryHelpers.AddQueryString method. A hidden gem in ASP.NET Core.","heroImage":"/images/hero/Microsoft-.NET-1366x768.png","path":"/asp-net-core-hidden-gem-queryhelpers/","tags":[{"id":"ASP.NET Core","title":"ASP.NET Core","path":"/tag/asp-net-core/"},{"id":"C#","title":"C#","path":"/tag/c/"},{"id":"QueryHelpers","title":"QueryHelpers","path":"/tag/query-helpers/"},{"id":"URL","title":"URL","path":"/tag/url/"}]}},{"node":{"id":"26fd49ad9429b995df29a5b819ee5e9b","title":"Optimally Configuring Entity Framework Core","date":"2018-07-08T00:00:00+00:00","dateModified":null,"timeToRead":3,"description":"How to optimally configure your Entity Framework Core DbContext for best performance, resiliency and easy debugging for the developer.","heroImage":"/images/hero/Microsoft-.NET-1366x768.png","path":"/optimally-configuring-entity-framework-core/","tags":[{"id":"Connection Strings","title":"Connection Strings","path":"/tag/connection-strings/"},{"id":"Entity Framework Core","title":"Entity Framework Core","path":"/tag/entity-framework-core/"},{"id":"Microsoft SQL Server","title":"Microsoft SQL Server","path":"/tag/microsoft-sql-server/"}]}},{"node":{"id":"238143077e4199a71711ba3720df6943","title":"Migrating to Entity Framework Core Seed Data","date":"2018-07-01T00:00:00+00:00","dateModified":null,"timeToRead":2,"description":"How to migrate an existing database to use Entity Framework Core 2.1 Seed Data to insert static data into your tables while using migrations.","heroImage":"/images/hero/Microsoft-.NET-1366x768.png","path":"/migrating-to-entity-framework-core-seed-data/","tags":[{"id":"Entity Framework Core","title":"Entity Framework Core","path":"/tag/entity-framework-core/"},{"id":"Migrations","title":"Migrations","path":"/tag/migrations/"},{"id":"Seed Data","title":"Seed Data","path":"/tag/seed-data/"}]}},{"node":{"id":"02f5fbb47e40f1cf896c4ded00e6d31d","title":".NET Boxed","date":"2018-05-13T00:00:00+00:00","dateModified":null,"timeToRead":2,"description":".NET Boxed is a set of project templates with batteries included, providing the minimum amount of code required to get you going faster.","heroImage":"/images/hero/Dotnet-Boxed-1366x768.png","path":"/net-boxed/","tags":[{"id":".NET Boxed","title":".NET Boxed","path":"/tag/net-boxed/"},{"id":".NET Core","title":".NET Core","path":"/tag/net-core/"},{"id":"API","title":"API","path":"/tag/api/"},{"id":"ASP.NET Core","title":"ASP.NET Core","path":"/tag/asp-net-core/"},{"id":"ASP.NET Core Boilerplate","title":"ASP.NET Core Boilerplate","path":"/tag/asp-net-core-boilerplate/"},{"id":"GraphQL","title":"GraphQL","path":"/tag/graph-ql/"},{"id":"Swagger","title":"Swagger","path":"/tag/swagger/"}]}},{"node":{"id":"c17034fd1bcde3b2b4ad7776858b8cb2","title":"The Dotnet Watch Tool Revisited","date":"2018-04-30T00:00:00+00:00","dateModified":null,"timeToRead":2,"description":"The dotnet watch tool is a file watcher for dotnet that restarts the application when changes in the source code are detected. You can use dotnet watch in Visual Studio by using the launchSettings.json configuration file.","heroImage":"/images/hero/Microsoft-.NET-1366x768.png","path":"/the-dotnet-watch-tool-revisited/","tags":[{"id":".NET","title":".NET","path":"/tag/net/"},{"id":"ASP.NET Core","title":"ASP.NET Core","path":"/tag/asp-net-core/"},{"id":".NET Boxed","title":".NET Boxed","path":"/tag/net-boxed/"},{"id":"ASP.NET MVC","title":"ASP.NET MVC","path":"/tag/asp-net-mvc/"},{"id":"dotnet watch","title":"dotnet watch","path":"/tag/dotnet-watch/"},{"id":"launchSettings.json","title":"launchSettings.json","path":"/tag/launch-settings-json/"},{"id":"Visual Studio","title":"Visual Studio","path":"/tag/visual-studio/"}]}}]}},"context":{}}