{"hash":"0dad3ff02ed7e50daea9ebe3878106179e4997f8","data":{"posts":{"pageInfo":{"totalPages":9,"currentPage":6,"perPage":10,"totalItems":82,"hasPreviousPage":true,"hasNextPage":true,"isFirst":false,"isLast":false},"edges":[{"node":{"id":"ef73346a9b92150798eb23932be0dc0c","title":"Building RSS/Atom Feeds for ASP.NET MVC","date":"2015-06-26T00:00:00+00:00","dateModified":null,"timeToRead":21,"description":"How to build a fully featured RSS/Atom feed for ASP.NET MVC, including Google's PubSubHubbub and the 'Subscribe to this feed' button.","heroImage":"/images/hero/RSS-And-Atom-1366x768.png","path":"/building-rssatom-feeds-for-asp-net-mvc/","tags":[{"id":".NET","title":".NET","path":"/tag/net/"},{"id":"ASP.NET MVC","title":"ASP.NET MVC","path":"/tag/asp-net-mvc/"},{"id":"ASP.NET Core Boilerplate","title":"ASP.NET Core Boilerplate","path":"/tag/asp-net-core-boilerplate/"},{"id":"Atom","title":"Atom","path":"/tag/atom/"},{"id":"C#","title":"C#","path":"/tag/c/"},{"id":"RSS","title":"RSS","path":"/tag/rss/"},{"id":"SyndicationFeed","title":"SyndicationFeed","path":"/tag/syndication-feed/"}]}},{"node":{"id":"52a4bf0b8d68d3553e3dc791b74e3b44","title":"C# 6.0 - Saving Developers From Themselves","date":"2015-05-10T00:00:00+00:00","dateModified":null,"timeToRead":5,"description":"C# 6.0 helps reduce human error and save developers from themselves using the nameof operator, string interpolation and the null-conditional operator.","heroImage":"/images/hero/Microsoft-.NET-1366x768.png","path":"/c-6-0-saving-developers-from-themselves/","tags":[{"id":".NET","title":".NET","path":"/tag/net/"},{"id":"C#","title":"C#","path":"/tag/c/"},{"id":"C# 6.0","title":"C# 6.0","path":"/tag/c-6-0/"},{"id":"INotifyPropertyChanged","title":"INotifyPropertyChanged","path":"/tag/i-notify-property-changed/"},{"id":"nameof","title":"nameof","path":"/tag/nameof/"}]}},{"node":{"id":"5a0c5ad9d669b9568188c092143035bb","title":"Content Security Policy (CSP) for ASP.NET MVC","date":"2015-03-17T00:00:00+00:00","dateModified":null,"timeToRead":23,"description":"Content Security Policy (CSP) is a HTTP header which white-lists content the browser is allowed to load. This post discusses its application in ASP.NET MVC.","heroImage":"/images/hero/Content-Security-Policy-CSP-for-ASP.NET-MVC-1366x768.png","path":"/content-security-policy-for-asp-net-mvc/","tags":[{"id":".NET","title":".NET","path":"/tag/net/"},{"id":"ASP.NET","title":"ASP.NET","path":"/tag/asp-net/"},{"id":"ASP.NET Core Boilerplate","title":"ASP.NET Core Boilerplate","path":"/tag/asp-net-core-boilerplate/"},{"id":"C#","title":"C#","path":"/tag/c/"},{"id":"Content Security Policy","title":"Content Security Policy","path":"/tag/content-security-policy/"},{"id":"Cross Site Scripting","title":"Cross Site Scripting","path":"/tag/cross-site-scripting/"},{"id":"CSP","title":"CSP","path":"/tag/csp/"},{"id":"Fiddler","title":"Fiddler","path":"/tag/fiddler/"},{"id":"MVC","title":"MVC","path":"/tag/mvc/"},{"id":"NWebSec","title":"NWebSec","path":"/tag/n-web-sec/"}]}},{"node":{"id":"82f7f7bc7fed625f8d7addeb6c2d4297","title":"NWebSec ASP.NET MVC Security Through HTTP Headers","date":"2015-02-05T00:00:00+00:00","dateModified":null,"timeToRead":7,"description":"The NWebSec NuGet packages help secure your ASP.NET MVC site using HTTP headers. The ASP.NET Core Boilerplate project template configures them our of the box.","heroImage":"/images/hero/NWebSec-1366x768.png","path":"/nwebsec-asp-net-mvc-security-through-http-headers/","tags":[{"id":".NET","title":".NET","path":"/tag/net/"},{"id":"ASP.NET MVC","title":"ASP.NET MVC","path":"/tag/asp-net-mvc/"},{"id":"ASP.NET Core Boilerplate","title":"ASP.NET Core Boilerplate","path":"/tag/asp-net-core-boilerplate/"},{"id":"C#","title":"C#","path":"/tag/c/"},{"id":"Cache-Control","title":"Cache-Control","path":"/tag/cache-control/"},{"id":"Content Security Policy","title":"Content Security Policy","path":"/tag/content-security-policy/"},{"id":"CSP","title":"CSP","path":"/tag/csp/"},{"id":"GitHub","title":"GitHub","path":"/tag/git-hub/"},{"id":"HTTP","title":"HTTP","path":"/tag/http/"},{"id":"HTTP Headers","title":"HTTP Headers","path":"/tag/http-headers/"}]}},{"node":{"id":"8c452f2b48d6b1efe086b899baf35b93","title":"Reactive Extensions (Rx) - Part 7 - Sample Events","date":"2014-12-24T00:00:00+00:00","dateModified":null,"timeToRead":2,"description":"Shows how to use the Reactive Extensions (Rx) Sample method to reduce the number of subscribed events by taking a sample from them over a given time period.","heroImage":"/images/hero/Reactive-Extensions-1366x768.png","path":"/reactive-extensions-part7-sample-events/","tags":[{"id":".NET","title":".NET","path":"/tag/net/"},{"id":"C#","title":"C#","path":"/tag/c/"},{"id":"Reactive Extensions","title":"Reactive Extensions","path":"/tag/reactive-extensions/"},{"id":"Rx","title":"Rx","path":"/tag/rx/"}]}},{"node":{"id":"77fc78f3fe390611add4ab073210dc95","title":"Securing the ASP.NET MVC Web.config","date":"2014-12-17T00:00:00+00:00","dateModified":null,"timeToRead":11,"description":"The web.config file is insecure in the default ASP.NET MVC project template. This post talks you through securing the ASP.NET MVC Web.config file.","heroImage":"/images/hero/ASP.NET-Core-Boilerplate-1366x768.png","path":"/securing-the-aspnet-mvc-web-config/","tags":[{"id":".NET","title":".NET","path":"/tag/net/"},{"id":"ASP.NET MVC","title":"ASP.NET MVC","path":"/tag/asp-net-mvc/"},{"id":"ASP.NET Core Boilerplate","title":"ASP.NET Core Boilerplate","path":"/tag/asp-net-core-boilerplate/"},{"id":"C#","title":"C#","path":"/tag/c/"},{"id":"GitHub","title":"GitHub","path":"/tag/git-hub/"},{"id":"HTTP Headers","title":"HTTP Headers","path":"/tag/http-headers/"},{"id":"Project Template","title":"Project Template","path":"/tag/project-template/"},{"id":"Security","title":"Security","path":"/tag/security/"},{"id":"Visual Studio","title":"Visual Studio","path":"/tag/visual-studio/"},{"id":"Web.config","title":"Web.config","path":"/tag/web-config/"}]}},{"node":{"id":"81ea03c1f27e475f4f670b6416c874cd","title":"Configuration File Transforms In Visual Studio Should Be Built In","date":"2014-12-15T00:00:00+00:00","dateModified":null,"timeToRead":3,"description":"Configuration File Transforms can be done with the Slow Cheetah Visual Studio extension by Sayed Hashimi. This feature should be built into Visual Studio.","heroImage":"/images/hero/Visual-Studio-1366x768.png","path":"/configuration-file-transforms-in-visual-studio-should-be-built-in/","tags":[{"id":"App.config","title":"App.config","path":"/tag/app-config/"},{"id":"Config","title":"Config","path":"/tag/config/"},{"id":"Configuration","title":"Configuration","path":"/tag/configuration/"},{"id":"Microsoft","title":"Microsoft","path":"/tag/microsoft/"},{"id":"Sayed Ibrahim Hashimi","title":"Sayed Ibrahim Hashimi","path":"/tag/sayed-ibrahim-hashimi/"},{"id":"Slow Cheetah","title":"Slow Cheetah","path":"/tag/slow-cheetah/"},{"id":"Visual Studio","title":"Visual Studio","path":"/tag/visual-studio/"},{"id":"Web.config","title":"Web.config","path":"/tag/web-config/"}]}},{"node":{"id":"b9bae5696b338d4897e653167ef7e140","title":"Custom Visual Studio Project Templates","date":"2014-12-10T00:00:00+00:00","dateModified":null,"timeToRead":8,"description":"A guide to creating custom Visual Studio project templates in .zip and VSIX form and submitting them to the Visual Studio Gallery, so it can be downloaded.","heroImage":"/images/hero/Visual-Studio-1366x768.png","path":"/custom-visual-studio-project-templates/","tags":[{"id":".NET","title":".NET","path":"/tag/net/"},{"id":"ASP.NET MVC","title":"ASP.NET MVC","path":"/tag/asp-net-mvc/"},{"id":"ASP.NET Core Boilerplate","title":"ASP.NET Core Boilerplate","path":"/tag/asp-net-core-boilerplate/"},{"id":"C#","title":"C#","path":"/tag/c/"},{"id":"Project Template","title":"Project Template","path":"/tag/project-template/"},{"id":"VSIX","title":"VSIX","path":"/tag/vsix/"}]}},{"node":{"id":"493ead6dcd30220ab883ceda533a9c01","title":"Internet Favicon Madness (Updated)","date":"2014-11-24T00:00:00+00:00","dateModified":null,"timeToRead":18,"description":"Add favicon's to your website to support iOS, Android, Windows 7, Windows 8, Windows Phone and more. Find out where icons are used on each platform and how.","heroImage":"/images/hero/Favicons-1366x768.png","path":"/internet-favicon-madness/","tags":[{"id":".NET","title":".NET","path":"/tag/net/"},{"id":"Android","title":"Android","path":"/tag/android/"},{"id":"ASP.NET MVC","title":"ASP.NET MVC","path":"/tag/asp-net-mvc/"},{"id":"ASP.NET Core Boilerplate","title":"ASP.NET Core Boilerplate","path":"/tag/asp-net-core-boilerplate/"},{"id":"C#","title":"C#","path":"/tag/c/"},{"id":"Favicon","title":"Favicon","path":"/tag/favicon/"},{"id":"HTML 5","title":"HTML 5","path":"/tag/html-5/"},{"id":"iOS","title":"iOS","path":"/tag/i-os/"},{"id":"Meta Tags","title":"Meta Tags","path":"/tag/meta-tags/"},{"id":"Windows 8.1","title":"Windows 8.1","path":"/tag/windows-8-1/"}]}},{"node":{"id":"eef5b6b2e546808ca04dc8e8c97aad47","title":"ASP.NET Core Boilerplate","date":"2014-11-12T00:00:00+00:00","dateModified":null,"timeToRead":7,"description":"ASP.NET Core Boilerplate is a professional ASP.NET MVC template for building secure, fast, robust and adaptable web applications or sites.","heroImage":"/images/hero/ASP.NET-Core-Boilerplate-1366x768.png","path":"/asp-net-mvc-boilerplate/","tags":[{"id":".NET","title":".NET","path":"/tag/net/"},{"id":"ASP.NET MVC","title":"ASP.NET MVC","path":"/tag/asp-net-mvc/"},{"id":"ASP.NET Core Boilerplate","title":"ASP.NET Core Boilerplate","path":"/tag/asp-net-core-boilerplate/"},{"id":"Autofac","title":"Autofac","path":"/tag/autofac/"},{"id":"Bootstrap","title":"Bootstrap","path":"/tag/bootstrap/"},{"id":"C#","title":"C#","path":"/tag/c/"},{"id":"Content Security Policy (CSP)","title":"Content Security Policy (CSP)","path":"/tag/content-security-policy-csp/"},{"id":"Elmah","title":"Elmah","path":"/tag/elmah/"},{"id":"Font Awesome","title":"Font Awesome","path":"/tag/font-awesome/"},{"id":"GitHub","title":"GitHub","path":"/tag/git-hub/"}]}}]}},"context":{}}