{"hash":"3d9410daddccf233d8d199d2a32b412d75039cbb","data":{"posts":{"pageInfo":{"totalPages":10,"currentPage":10,"perPage":10,"totalItems":91,"hasPreviousPage":true,"hasNextPage":false,"isFirst":false,"isLast":true},"edges":[{"node":{"id":"5203a9bdf8cfe4a161e771f32650d3e1","title":"Just Start - The First Blog Post","date":"2014-02-01T00:00:00+00:00","dateModified":null,"timeToRead":1,"description":"I thought I should begin this first blog post with a few words on what I hope to achieve.","heroImage":"/images/hero/Just-Start-1366x768.png","path":"/just-start-the-first-blog-post/","tags":[]}}]}},"context":{}}