{"hash":"b2f47951bc90886d300e9244c7adcd0cfa4654a4","data":{"posts":{"pageInfo":{"totalPages":9,"currentPage":5,"perPage":10,"totalItems":89,"hasPreviousPage":true,"hasNextPage":true,"isFirst":false,"isLast":false},"edges":[{"node":{"id":"e7580c20a6897ddea1e2305835ff74de","title":"The Dotnet Watch Tool","date":"2016-09-10T00:00:00+00:00","dateModified":null,"timeToRead":2,"description":"The dotnet watch tool is a file watcher for dotnet that restarts the application when changes in the source code are detected.","heroImage":"/images/hero/Microsoft-.NET-1366x768.png","path":"/the-dotnet-watch-tool/","tags":[{"id":".NET","title":".NET","path":"/tag/net/"},{"id":"ASP.NET Core","title":"ASP.NET Core","path":"/tag/asp-net-core/"},{"id":"ASP.NET MVC","title":"ASP.NET MVC","path":"/tag/asp-net-mvc/"},{"id":".NET Boxed","title":".NET Boxed","path":"/tag/net-boxed/"},{"id":"dotnet watch","title":"dotnet watch","path":"/tag/dotnet-watch/"},{"id":"launchSettings.json","title":"launchSettings.json","path":"/tag/launch-settings-json/"},{"id":"project.json","title":"project.json","path":"/tag/project-json/"},{"id":"Visual Studio","title":"Visual Studio","path":"/tag/visual-studio/"}]}},{"node":{"id":"315a1b28abb4fd62a9620d8b0ce90c15","title":"NGINX for ASP.NET Core In-Depth","date":"2016-08-21T00:00:00+00:00","dateModified":null,"timeToRead":11,"description":"NGINX is a popular open source web server. It can act as a reverse proxy server for ASP.NET Core web apps. How to configure NGINX for ASP.NET Core.","heroImage":"/images/hero/NGINX-1366x768.png","path":"/nginx-asp-net-core-depth/","tags":[{"id":"ASP.NET Core","title":"ASP.NET Core","path":"/tag/asp-net-core/"},{"id":".NET Boxed","title":".NET Boxed","path":"/tag/net-boxed/"},{"id":"Brotli","title":"Brotli","path":"/tag/brotli/"},{"id":"HTTP 2.0","title":"HTTP 2.0","path":"/tag/http-2-0/"},{"id":"IIS","title":"IIS","path":"/tag/iis/"},{"id":"Internet Information Services (IIS)","title":"Internet Information Services (IIS)","path":"/tag/internet-information-services-iis/"},{"id":"Kestrel","title":"Kestrel","path":"/tag/kestrel/"},{"id":"NGINX","title":"NGINX","path":"/tag/nginx/"},{"id":"Web Server","title":"Web Server","path":"/tag/web-server/"}]}},{"node":{"id":"7c0d71e059dca62e463437799b6c1937","title":"ASP.NET Core Fluent Interface Extensions","date":"2016-06-26T00:00:00+00:00","dateModified":null,"timeToRead":2,"description":"Using the fluent interface style in with ASP.NET Core Fluent Interface Extension methods. Building on top of the work done by Khalid Abuhakmeh.","heroImage":"/images/hero/Fluent-Interface-All-The-Things-1366x768.png","path":"/asp-net-core-fluent-interface-extensions/","tags":[{"id":"ASP.NET Core","title":"ASP.NET Core","path":"/tag/asp-net-core/"},{"id":".NET Boxed","title":".NET Boxed","path":"/tag/net-boxed/"}]}},{"node":{"id":"45705306e6022fd498a711df95a8b96c","title":"Azure Active Directory Versus Identity Server","date":"2016-05-20T00:00:00+00:00","dateModified":null,"timeToRead":6,"description":"A comparison between Azure Active Directory and Identity Server covering the advantages and disadvantages of both.","heroImage":"/images/hero/Azure-Active-Directory-Versus-Identity-Server-1366x768.png","path":"/azure-active-directory-versus-identity-server/","tags":[{"id":"Active Directory","title":"Active Directory","path":"/tag/active-directory/"},{"id":"Azure Active Directory","title":"Azure Active Directory","path":"/tag/azure-active-directory/"},{"id":"Cloudflare","title":"Cloudflare","path":"/tag/cloudflare/"},{"id":"Connect Health","title":"Connect Health","path":"/tag/connect-health/"},{"id":"IdentityServer","title":"IdentityServer","path":"/tag/identity-server/"},{"id":"IdentityServer4","title":"IdentityServer4","path":"/tag/identity-server4/"},{"id":"Two-Factor Authentication","title":"Two-Factor Authentication","path":"/tag/two-factor-authentication/"}]}},{"node":{"id":"8997eafd06b128fbbbdf16aaa398fa13","title":"Social TagHelpers for ASP.NET Core","date":"2016-03-19T00:00:00+00:00","dateModified":null,"timeToRead":5,"description":"Enhance the experience of sharing a page from your site through the use of social media meta tags implemented with ASP.NET Core TagHelpers.","heroImage":"/images/hero/Social-Media-1366x768.png","path":"/social-taghelpers-for-asp-net-core/","tags":[{"id":".NET","title":".NET","path":"/tag/net/"},{"id":"ASP.NET Core","title":"ASP.NET Core","path":"/tag/asp-net-core/"},{"id":"ASP.NET MVC","title":"ASP.NET MVC","path":"/tag/asp-net-mvc/"},{"id":"ASP.NET MVC 5","title":"ASP.NET MVC 5","path":"/tag/asp-net-mvc-5/"},{"id":".NET Boxed","title":".NET Boxed","path":"/tag/net-boxed/"},{"id":"GitHub","title":"GitHub","path":"/tag/git-hub/"},{"id":"HTML Helper","title":"HTML Helper","path":"/tag/html-helper/"},{"id":"TagHelper","title":"TagHelper","path":"/tag/tag-helper/"}]}},{"node":{"id":"7f2beff379af0708aa66db13b6666b9d","title":"Subresource Integrity TagHelper Using ASP.NET Core - Part 2","date":"2016-03-12T00:00:00+00:00","dateModified":null,"timeToRead":4,"description":"Use an ASP.NET Core TagHelper to implement Subresource Integrity (SRI) to ensure that external resources have not been tampered with. With is part 2.","heroImage":"/images/hero/Make-Security-Easy-1366x768.png","path":"/subresource-integrity-taghelper-using-asp-net-core-part-2/","tags":[{"id":".NET","title":".NET","path":"/tag/net/"},{"id":"ASP.NET Community Standup","title":"ASP.NET Community Standup","path":"/tag/asp-net-community-standup/"},{"id":"ASP.NET Core","title":"ASP.NET Core","path":"/tag/asp-net-core/"},{"id":"ASP.NET MVC","title":"ASP.NET MVC","path":"/tag/asp-net-mvc/"},{"id":".NET Boxed","title":".NET Boxed","path":"/tag/net-boxed/"},{"id":"C#","title":"C#","path":"/tag/c/"},{"id":"Content Delivery Network (CDN)","title":"Content Delivery Network (CDN)","path":"/tag/content-delivery-network-cdn/"},{"id":"Cryptography","title":"Cryptography","path":"/tag/cryptography/"},{"id":"Damian Edwards","title":"Damian Edwards","path":"/tag/damian-edwards/"},{"id":"Jon Galloway","title":"Jon Galloway","path":"/tag/jon-galloway/"}]}},{"node":{"id":"540d3a37bf8f496acc92dc7b613368fc","title":"Subresource Integrity TagHelper Using ASP.NET Core - Part 1","date":"2016-03-06T00:00:00+00:00","dateModified":null,"timeToRead":3,"description":"Use an ASP.NET Core TagHelper to implement Subresource Integrity (SRI) to ensure that external resources have not been tampered with.","heroImage":"/images/hero/Make-Security-Easy-1366x768.png","path":"/subresource-integrity-taghelper-using-asp-net-core/","tags":[{"id":".NET","title":".NET","path":"/tag/net/"},{"id":"ASP.NET Core","title":"ASP.NET Core","path":"/tag/asp-net-core/"},{"id":"ASP.NET MVC","title":"ASP.NET MVC","path":"/tag/asp-net-mvc/"},{"id":".NET Boxed","title":".NET Boxed","path":"/tag/net-boxed/"},{"id":"C#","title":"C#","path":"/tag/c/"},{"id":"Content Delivery Network (CDN)","title":"Content Delivery Network (CDN)","path":"/tag/content-delivery-network-cdn/"},{"id":"Cryptography","title":"Cryptography","path":"/tag/cryptography/"},{"id":"NWebSec","title":"NWebSec","path":"/tag/n-web-sec/"},{"id":"Security","title":"Security","path":"/tag/security/"},{"id":"Subresource Integrity (SRI)","title":"Subresource Integrity (SRI)","path":"/tag/subresource-integrity-sri/"}]}},{"node":{"id":"deb66a42934de55ecaa01262a916c3f6","title":"Colorful.Console","date":"2016-02-14T00:00:00+00:00","dateModified":null,"timeToRead":2,"description":"Colorful.Console is a C# library that wraps around the System.Console class, making your console apps more colourful. Write ASCII art using Figlet fonts.","heroImage":"/images/hero/Colorful.Console-1366x768.png","path":"/colorful-console/","tags":[{"id":".NET","title":".NET","path":"/tag/net/"},{"id":"ASCII","title":"ASCII","path":"/tag/ascii/"},{"id":"C#","title":"C#","path":"/tag/c/"},{"id":"Colorful.Console","title":"Colorful.Console","path":"/tag/colorful-console/"},{"id":"Console","title":"Console","path":"/tag/console/"},{"id":"DNVM","title":"DNVM","path":"/tag/dnvm/"},{"id":"Figlet Font","title":"Figlet Font","path":"/tag/figlet-font/"},{"id":"GitHub","title":"GitHub","path":"/tag/git-hub/"},{"id":"NuGet","title":"NuGet","path":"/tag/nu-get/"}]}},{"node":{"id":"b60159c7f48bdfa65a6399ccb702f46e","title":"Make Certificate","date":"2016-02-07T00:00:00+00:00","dateModified":null,"timeToRead":1,"description":"Make certificate files by answering a few simple questions instead of using makecert.exe and pvk2pfx.exe, passing in some pretty cryptic arguments.","heroImage":"/images/hero/Make-Certificate-1366x768.png","path":"/make-certificate/","tags":[{"id":"Certificates","title":"Certificates","path":"/tag/certificates/"},{"id":"MakeCertificate","title":"MakeCertificate","path":"/tag/make-certificate/"},{"id":"PowerShell","title":"PowerShell","path":"/tag/power-shell/"},{"id":"Private Key","title":"Private Key","path":"/tag/private-key/"},{"id":"Public Key","title":"Public Key","path":"/tag/public-key/"},{"id":"SSL","title":"SSL","path":"/tag/ssl/"},{"id":"TLS","title":"TLS","path":"/tag/tls/"}]}},{"node":{"id":"a417a864b1ae4d5bc1f4569283e0fad7","title":"Logging with Serilog.Exceptions","date":"2016-01-31T00:00:00+00:00","dateModified":null,"timeToRead":3,"description":"Log exception details and custom properties that are not output in Exception.ToString() using Serilog.Exceptions for .NET.","heroImage":"/images/hero/Serilog.Exceptions-1366x768.png","path":"/logging-with-serilog-exceptions/","tags":[{"id":".NET","title":".NET","path":"/tag/net/"},{"id":"Base Class Library","title":"Base Class Library","path":"/tag/base-class-library/"},{"id":"BCL","title":"BCL","path":"/tag/bcl/"},{"id":"C#","title":"C#","path":"/tag/c/"},{"id":"GitHub","title":"GitHub","path":"/tag/git-hub/"},{"id":"NuGet","title":"NuGet","path":"/tag/nu-get/"},{"id":"Serilog","title":"Serilog","path":"/tag/serilog/"},{"id":"Serilog.Exceptions","title":"Serilog.Exceptions","path":"/tag/serilog-exceptions/"}]}}]}},"context":{}}